\relax 
\citation{hopkins1951}
\citation{hopkins1952}
\@writefile{toc}{\contentsline {section}{\numberline {1}Derivation}{1}{}\protected@file@percent }
\bibstyle{unsrt}
\bibdata{ref}
\bibcite{hopkins1951}{1}
\bibcite{hopkins1952}{2}
\gdef \@abspage@last{2}
